<?xml version="1.0" encoding="UTF-8"?>
<dia:diagram xmlns:dia="http://www.lysator.liu.se/~alla/dia/">
  <dia:diagramdata>
    <dia:attribute name="background">
      <dia:color val="#ffffff"/>
    </dia:attribute>
    <dia:attribute name="pagebreak">
      <dia:color val="#000099"/>
    </dia:attribute>
    <dia:attribute name="paper">
      <dia:composite type="paper">
        <dia:attribute name="name">
          <dia:string>#A4#</dia:string>
        </dia:attribute>
        <dia:attribute name="tmargin">
          <dia:real val="2.8222000598907471"/>
        </dia:attribute>
        <dia:attribute name="bmargin">
          <dia:real val="2.8222000598907471"/>
        </dia:attribute>
        <dia:attribute name="lmargin">
          <dia:real val="2.8222000598907471"/>
        </dia:attribute>
        <dia:attribute name="rmargin">
          <dia:real val="2.8222000598907471"/>
        </dia:attribute>
        <dia:attribute name="is_portrait">
          <dia:boolean val="true"/>
        </dia:attribute>
        <dia:attribute name="scaling">
          <dia:real val="1"/>
        </dia:attribute>
        <dia:attribute name="fitto">
          <dia:boolean val="false"/>
        </dia:attribute>
      </dia:composite>
    </dia:attribute>
    <dia:attribute name="grid">
      <dia:composite type="grid">
        <dia:attribute name="width_x">
          <dia:real val="1"/>
        </dia:attribute>
        <dia:attribute name="width_y">
          <dia:real val="1"/>
        </dia:attribute>
        <dia:attribute name="visible_x">
          <dia:int val="1"/>
        </dia:attribute>
        <dia:attribute name="visible_y">
          <dia:int val="1"/>
        </dia:attribute>
        <dia:composite type="color"/>
      </dia:composite>
    </dia:attribute>
    <dia:attribute name="color">
      <dia:color val="#d8e5e5"/>
    </dia:attribute>
    <dia:attribute name="guides">
      <dia:composite type="guides">
        <dia:attribute name="hguides"/>
        <dia:attribute name="vguides"/>
      </dia:composite>
    </dia:attribute>
  </dia:diagramdata>
  <dia:layer name="背景" visible="true" active="true">
    <dia:object type="UML - Note" version="0" id="O0">
      <dia:attribute name="obj_pos">
        <dia:point val="25.5,14.45"/>
      </dia:attribute>
      <dia:attribute name="obj_bb">
        <dia:rectangle val="25.45,14.4;31.455,17"/>
      </dia:attribute>
      <dia:attribute name="meta">
        <dia:composite type="dict"/>
      </dia:attribute>
      <dia:attribute name="elem_corner">
        <dia:point val="25.5,14.45"/>
      </dia:attribute>
      <dia:attribute name="elem_width">
        <dia:real val="5.9050000000000002"/>
      </dia:attribute>
      <dia:attribute name="elem_height">
        <dia:real val="2.5"/>
      </dia:attribute>
      <dia:attribute name="line_width">
        <dia:real val="0.10000000000000001"/>
      </dia:attribute>
      <dia:attribute name="line_colour">
        <dia:color val="#000000"/>
      </dia:attribute>
      <dia:attribute name="fill_colour">
        <dia:color val="#ffffff"/>
      </dia:attribute>
      <dia:attribute name="text">
        <dia:composite type="text">
          <dia:attribute name="string">
            <dia:string>#(1, 'Male')
(2, 'Female')#</dia:string>
          </dia:attribute>
          <dia:attribute name="font">
            <dia:font family="monospace" style="0" name="Courier"/>
          </dia:attribute>
          <dia:attribute name="height">
            <dia:real val="0.80000000000000004"/>
          </dia:attribute>
          <dia:attribute name="pos">
            <dia:point val="25.85,15.695"/>
          </dia:attribute>
          <dia:attribute name="color">
            <dia:color val="#000000"/>
          </dia:attribute>
          <dia:attribute name="alignment">
            <dia:enum val="0"/>
          </dia:attribute>
        </dia:composite>
      </dia:attribute>
    </dia:object>
    <dia:object type="Database - Table" version="0" id="O1">
      <dia:attribute name="obj_pos">
        <dia:point val="2.7,10.25"/>
      </dia:attribute>
      <dia:attribute name="obj_bb">
        <dia:rectangle val="2.7,10.25;22.095,12.95"/>
      </dia:attribute>
      <dia:attribute name="meta">
        <dia:composite type="dict"/>
      </dia:attribute>
      <dia:attribute name="elem_corner">
        <dia:point val="2.7,10.25"/>
      </dia:attribute>
      <dia:attribute name="elem_width">
        <dia:real val="19.395"/>
      </dia:attribute>
      <dia:attribute name="elem_height">
        <dia:real val="2.7000000000000002"/>
      </dia:attribute>
      <dia:attribute name="text_colour">
        <dia:color val="#000000"/>
      </dia:attribute>
      <dia:attribute name="line_colour">
        <dia:color val="#000000"/>
      </dia:attribute>
      <dia:attribute name="fill_colour">
        <dia:color val="#ffffff"/>
      </dia:attribute>
      <dia:attribute name="line_width">
        <dia:real val="0.10000000000000001"/>
      </dia:attribute>
      <dia:attribute name="name">
        <dia:string>#person#</dia:string>
      </dia:attribute>
      <dia:attribute name="comment">
        <dia:string>#person#</dia:string>
      </dia:attribute>
      <dia:attribute name="visible_comment">
        <dia:boolean val="false"/>
      </dia:attribute>
      <dia:attribute name="tagging_comment">
        <dia:boolean val="false"/>
      </dia:attribute>
      <dia:attribute name="underline_primary_key">
        <dia:boolean val="true"/>
      </dia:attribute>
      <dia:attribute name="bold_primary_keys">
        <dia:boolean val="true"/>
      </dia:attribute>
      <dia:attribute name="normal_font">
        <dia:font family="monospace" style="0" name="Courier"/>
      </dia:attribute>
      <dia:attribute name="name_font">
        <dia:font family="sans" style="80" name="Helvetica-Bold"/>
      </dia:attribute>
      <dia:attribute name="comment_font">
        <dia:font family="sans" style="8" name="Helvetica-Oblique"/>
      </dia:attribute>
      <dia:attribute name="normal_font_height">
        <dia:real val="0.80000000000000004"/>
      </dia:attribute>
      <dia:attribute name="name_font_height">
        <dia:real val="0.69999999999999996"/>
      </dia:attribute>
      <dia:attribute name="comment_font_height">
        <dia:real val="0.69999999999999996"/>
      </dia:attribute>
      <dia:attribute name="attributes">
        <dia:composite type="table_attribute">
          <dia:attribute name="name">
            <dia:string>#person_id#</dia:string>
          </dia:attribute>
          <dia:attribute name="type">
            <dia:string>#INT(10) UNSIGNED AUTO_INCREMENT#</dia:string>
          </dia:attribute>
          <dia:attribute name="comment">
            <dia:string>#person id#</dia:string>
          </dia:attribute>
          <dia:attribute name="primary_key">
            <dia:boolean val="true"/>
          </dia:attribute>
          <dia:attribute name="nullable">
            <dia:boolean val="false"/>
          </dia:attribute>
          <dia:attribute name="unique">
            <dia:boolean val="true"/>
          </dia:attribute>
        </dia:composite>
        <dia:composite type="table_attribute">
          <dia:attribute name="name">
            <dia:string>#person_gender_id#</dia:string>
          </dia:attribute>
          <dia:attribute name="type">
            <dia:string>#INT(2) UNSIGNED#</dia:string>
          </dia:attribute>
          <dia:attribute name="comment">
            <dia:string>#person gender id#</dia:string>
          </dia:attribute>
          <dia:attribute name="primary_key">
            <dia:boolean val="false"/>
          </dia:attribute>
          <dia:attribute name="nullable">
            <dia:boolean val="true"/>
          </dia:attribute>
          <dia:attribute name="unique">
            <dia:boolean val="false"/>
          </dia:attribute>
        </dia:composite>
      </dia:attribute>
    </dia:object>
    <dia:object type="Database - Table" version="0" id="O2">
      <dia:attribute name="obj_pos">
        <dia:point val="2.9,14.3"/>
      </dia:attribute>
      <dia:attribute name="obj_bb">
        <dia:rectangle val="2.9,14.3;21.91,17"/>
      </dia:attribute>
      <dia:attribute name="meta">
        <dia:composite type="dict"/>
      </dia:attribute>
      <dia:attribute name="elem_corner">
        <dia:point val="2.9,14.3"/>
      </dia:attribute>
      <dia:attribute name="elem_width">
        <dia:real val="19.010000000000002"/>
      </dia:attribute>
      <dia:attribute name="elem_height">
        <dia:real val="2.7000000000000002"/>
      </dia:attribute>
      <dia:attribute name="text_colour">
        <dia:color val="#000000"/>
      </dia:attribute>
      <dia:attribute name="line_colour">
        <dia:color val="#000000"/>
      </dia:attribute>
      <dia:attribute name="fill_colour">
        <dia:color val="#ffffff"/>
      </dia:attribute>
      <dia:attribute name="line_width">
        <dia:real val="0.10000000000000001"/>
      </dia:attribute>
      <dia:attribute name="name">
        <dia:string>#gender#</dia:string>
      </dia:attribute>
      <dia:attribute name="comment">
        <dia:string>##</dia:string>
      </dia:attribute>
      <dia:attribute name="visible_comment">
        <dia:boolean val="false"/>
      </dia:attribute>
      <dia:attribute name="tagging_comment">
        <dia:boolean val="false"/>
      </dia:attribute>
      <dia:attribute name="underline_primary_key">
        <dia:boolean val="true"/>
      </dia:attribute>
      <dia:attribute name="bold_primary_keys">
        <dia:boolean val="true"/>
      </dia:attribute>
      <dia:attribute name="normal_font">
        <dia:font family="monospace" style="0" name="Courier"/>
      </dia:attribute>
      <dia:attribute name="name_font">
        <dia:font family="sans" style="80" name="Helvetica-Bold"/>
      </dia:attribute>
      <dia:attribute name="comment_font">
        <dia:font family="sans" style="8" name="Helvetica-Oblique"/>
      </dia:attribute>
      <dia:attribute name="normal_font_height">
        <dia:real val="0.80000000000000004"/>
      </dia:attribute>
      <dia:attribute name="name_font_height">
        <dia:real val="0.69999999999999996"/>
      </dia:attribute>
      <dia:attribute name="comment_font_height">
        <dia:real val="0.69999999999999996"/>
      </dia:attribute>
      <dia:attribute name="attributes">
        <dia:composite type="table_attribute">
          <dia:attribute name="name">
            <dia:string>#gender_id#</dia:string>
          </dia:attribute>
          <dia:attribute name="type">
            <dia:string>#INT(10) UNSIGNED AUTO_INCREMENT#</dia:string>
          </dia:attribute>
          <dia:attribute name="comment">
            <dia:string>#gender id#</dia:string>
          </dia:attribute>
          <dia:attribute name="primary_key">
            <dia:boolean val="true"/>
          </dia:attribute>
          <dia:attribute name="nullable">
            <dia:boolean val="false"/>
          </dia:attribute>
          <dia:attribute name="unique">
            <dia:boolean val="true"/>
          </dia:attribute>
        </dia:composite>
        <dia:composite type="table_attribute">
          <dia:attribute name="name">
            <dia:string>#gender_name#</dia:string>
          </dia:attribute>
          <dia:attribute name="type">
            <dia:string>#VARCHAR(10) COLLATE utf8_unicode_ci#</dia:string>
          </dia:attribute>
          <dia:attribute name="comment">
            <dia:string>#gender name#</dia:string>
          </dia:attribute>
          <dia:attribute name="primary_key">
            <dia:boolean val="false"/>
          </dia:attribute>
          <dia:attribute name="nullable">
            <dia:boolean val="false"/>
          </dia:attribute>
          <dia:attribute name="unique">
            <dia:boolean val="false"/>
          </dia:attribute>
        </dia:composite>
      </dia:attribute>
    </dia:object>
    <dia:object type="Database - Reference" version="0" id="O3">
      <dia:attribute name="obj_pos">
        <dia:point val="2.9,15.7"/>
      </dia:attribute>
      <dia:attribute name="obj_bb">
        <dia:rectangle val="1.7,11.8;2.9,15.7"/>
      </dia:attribute>
      <dia:attribute name="meta">
        <dia:composite type="dict"/>
      </dia:attribute>
      <dia:attribute name="orth_points">
        <dia:point val="2.9,15.7"/>
        <dia:point val="1.7,15.7"/>
        <dia:point val="1.7,12.45"/>
        <dia:point val="2.7,12.45"/>
      </dia:attribute>
      <dia:attribute name="orth_orient">
        <dia:enum val="0"/>
        <dia:enum val="1"/>
        <dia:enum val="0"/>
      </dia:attribute>
      <dia:attribute name="orth_autoroute">
        <dia:boolean val="true"/>
      </dia:attribute>
      <dia:attribute name="text_colour">
        <dia:color val="#000000"/>
      </dia:attribute>
      <dia:attribute name="line_colour">
        <dia:color val="#000000"/>
      </dia:attribute>
      <dia:attribute name="line_width">
        <dia:real val="0.10000000000000001"/>
      </dia:attribute>
      <dia:attribute name="line_style">
        <dia:enum val="0"/>
        <dia:real val="1"/>
      </dia:attribute>
      <dia:attribute name="corner_radius">
        <dia:real val="0"/>
      </dia:attribute>
      <dia:attribute name="end_arrow">
        <dia:enum val="22"/>
      </dia:attribute>
      <dia:attribute name="end_arrow_length">
        <dia:real val="0.5"/>
      </dia:attribute>
      <dia:attribute name="end_arrow_width">
        <dia:real val="0.5"/>
      </dia:attribute>
      <dia:attribute name="start_point_desc">
        <dia:string>#1#</dia:string>
      </dia:attribute>
      <dia:attribute name="end_point_desc">
        <dia:string>#n#</dia:string>
      </dia:attribute>
      <dia:attribute name="normal_font">
        <dia:font family="monospace" style="0" name="Courier"/>
      </dia:attribute>
      <dia:attribute name="normal_font_height">
        <dia:real val="0.59999999999999998"/>
      </dia:attribute>
      <dia:connections>
        <dia:connection handle="0" to="O2" connection="12"/>
        <dia:connection handle="1" to="O1" connection="14"/>
      </dia:connections>
    </dia:object>
    <dia:object type="Standard - ZigZagLine" version="1" id="O4">
      <dia:attribute name="obj_pos">
        <dia:point val="25.4496,15.7"/>
      </dia:attribute>
      <dia:attribute name="obj_bb">
        <dia:rectangle val="21.7982,14.3882;25.4996,15.75"/>
      </dia:attribute>
      <dia:attribute name="orth_points">
        <dia:point val="25.4496,15.7"/>
        <dia:point val="23.6798,15.7"/>
        <dia:point val="23.6798,14.75"/>
        <dia:point val="21.91,14.75"/>
      </dia:attribute>
      <dia:attribute name="orth_orient">
        <dia:enum val="0"/>
        <dia:enum val="1"/>
        <dia:enum val="0"/>
      </dia:attribute>
      <dia:attribute name="autorouting">
        <dia:boolean val="true"/>
      </dia:attribute>
      <dia:attribute name="end_arrow">
        <dia:enum val="22"/>
      </dia:attribute>
      <dia:attribute name="end_arrow_length">
        <dia:real val="0.5"/>
      </dia:attribute>
      <dia:attribute name="end_arrow_width">
        <dia:real val="0.5"/>
      </dia:attribute>
      <dia:connections>
        <dia:connection handle="0" to="O0" connection="8"/>
        <dia:connection handle="1" to="O2" connection="6"/>
      </dia:connections>
    </dia:object>
  </dia:layer>
</dia:diagram>
